reversible_pipeline/vsim/rtl.vcd
$date
	Wed Dec 10 04:59:45 2025
$end
$version
	Icarus Verilog
$end
$timescale
	1ps
$end
$scope module reversible_pe_tb $end
$var wire 1 ! spi_rx_valid $end
$var wire 18 " spi_rx_data [17:0] $end
$var wire 1 # spi_mosi $end
$var wire 1 $ spi_miso $end
$var wire 1 % spi_csn $end
$var wire 1 & spi_complete $end
$var wire 1 ' spi_clk $end
$var reg 1 ( clk $end
$var reg 1 ) clk_b $end
$var reg 1 * fpga_clk $end
$var reg 1 + rst_master $end
$var reg 1 , rst_n $end
$var reg 1 - spi_start $end
$var reg 23 . spi_tx_data [22:0] $end
$scope module dut $end
$var wire 3 / buffer_raddr [2:0] $end
$var wire 1 0 buffer_wen $end
$var wire 1 ( clk $end
$var wire 1 ) clk_b $end
$var wire 16 1 nxt_pe_reg0 [15:0] $end
$var wire 1 2 out_buffer_ren $end
$var wire 1 , rst_n $end
$var wire 1 3 unused_r_z $end
$var wire 1 4 unused_r_c0_f $end
$var wire 8 5 unused_mult_r_extra [7:0] $end
$var wire 1 6 unused_f_c15 $end
$var wire 1 7 unused_f_c0_b $end
$var wire 1 8 spi_wen $end
$var wire 18 9 spi_wdata [17:0] $end
$var wire 1 : spi_ren $end
$var wire 18 ; spi_rdata [17:0] $end
$var wire 1 # spi_mosi $end
$var wire 1 $ spi_miso $end
$var wire 1 % spi_csn $end
$var wire 1 ' spi_clk $end
$var wire 4 < spi_addr [3:0] $end
$var wire 3 = out_buffer_raddr [2:0] $end
$var wire 16 > out_buffer_data_out [15:0] $end
$var wire 32 ? nxt_pe_reg2 [31:0] $end
$var wire 24 @ nxt_pe_reg1 [23:0] $end
$var wire 16 A nxt_output_reg [15:0] $end
$var wire 2 B nxt_cmd [1:0] $end
$var wire 16 C mult_rev_ab [15:0] $end
$var wire 3 D buffer_waddr [2:0] $end
$var wire 1 E buffer_ren $end
$var wire 16 F buffer_data_out [15:0] $end
$var wire 16 G buffer_data_in [15:0] $end
$var wire 32 H add_rev_ab [31:0] $end
$var parameter 2 I IDLE $end
$var parameter 2 J READOUT $end
$var parameter 2 K START_CMD $end
$var parameter 2 L WORK $end
$var parameter 2 M WRITE_CMD $end
$var reg 2 N cmd [1:0] $end
$var reg 3 O counter [2:0] $end
$var reg 2 P current_state [1:0] $end
$var reg 2 Q next_state [1:0] $end
$var reg 3 R nxt_counter [2:0] $end
$var reg 16 S out_buffer_data_in [15:0] $end
$var reg 3 T out_buffer_waddr [2:0] $end
$var reg 1 U out_buffer_wen $end
$var reg 16 V output_reg [15:0] $end
$var reg 16 W pe_reg0 [15:0] $end
$var reg 24 X pe_reg1 [23:0] $end
$var reg 32 Y pe_reg2 [31:0] $end
$var reg 1 Z spi_rvalid $end
$scope module u_fa16_rev $end
$var wire 1 [ dir $end
$var wire 16 \ f_a [15:0] $end
$var wire 16 ] f_b [15:0] $end
$var wire 1 ^ f_c0_f $end
$var wire 1 _ f_z $end
$var wire 16 ` r_a_b [15:0] $end
$var wire 1 a r_c0_b $end
$var wire 1 b r_c15 $end
$var wire 16 c r_s [15:0] $end
$var wire 16 d forward_sum [15:0] $end
$var wire 1 e forward_carry $end
$var wire 16 f backward_sum [15:0] $end
$var reg 17 g backward_accum [16:0] $end
$var reg 16 h f_a_b [15:0] $end
$var reg 1 7 f_c0_b $end
$var reg 1 6 f_c15 $end
$var reg 16 i f_s [15:0] $end
$var reg 17 j forward_accum [16:0] $end
$var reg 16 k r_a [15:0] $end
$var reg 16 l r_b [15:0] $end
$var reg 1 4 r_c0_f $end
$var reg 1 3 r_z $end
$upscope $end
$scope module u_mult8_rev $end
$var wire 8 m backward_passthru [7:0] $end
$var wire 1 n dir $end
$var wire 8 o f_a [7:0] $end
$var wire 8 p f_b [7:0] $end
$var wire 8 q f_extra [7:0] $end
$var wire 8 r forward_passthru [7:0] $end
$var wire 8 s r_a_b [7:0] $end
$var wire 16 t r_p [15:0] $end
$var wire 16 u forward_prod [15:0] $end
$var wire 8 v backward_recovered_b [7:0] $end
$var wire 8 w backward_extra [7:0] $end
$var reg 8 x f_a_b [7:0] $end
$var reg 16 y f_p [15:0] $end
$var reg 8 z r_a [7:0] $end
$var reg 8 { r_b [7:0] $end
$var reg 8 | r_extra [7:0] $end
$upscope $end
$scope module u_pe_buffer $end
$var wire 1 ( clk $end
$var wire 16 } data_in [15:0] $end
$var wire 3 ~ read_addr [2:0] $end
$var wire 1 E read_en $end
$var wire 1 , rst_n $end
$var wire 3 !" write_addr [2:0] $end
$var wire 1 0 write_en $end
$var parameter 32 "" ADDR_WIDTH $end
$var parameter 32 #" DATA_NUM $end
$var parameter 32 $" DATA_WIDTH $end
$var parameter 32 %" DEPTH $end
$var reg 16 &" data_out [15:0] $end
$scope begin $ivl_for_loop0 $end
$var integer 32 '" i [31:0] $end
$upscope $end
$upscope $end
$scope module u_pe_out_buffer $end
$var wire 1 ( clk $end
$var wire 16 (" data_in [15:0] $end
$var wire 3 )" read_addr [2:0] $end
$var wire 1 2 read_en $end
$var wire 1 , rst_n $end
$var wire 3 *" write_addr [2:0] $end
$var wire 1 U write_en $end
$var parameter 32 +" ADDR_WIDTH $end
$var parameter 32 ," DATA_NUM $end
$var parameter 32 -" DATA_WIDTH $end
$var parameter 32 ." DEPTH $end
$var reg 16 /" data_out [15:0] $end
$scope begin $ivl_for_loop0 $end
$var integer 32 0" i [31:0] $end
$upscope $end
$upscope $end
$scope module u_spi_slave $end
$var wire 1 ( clk $end
$var wire 18 1" rdata [17:0] $end
$var wire 1 : ren $end
$var wire 1 2" rst $end
$var wire 1 Z rvalid $end
$var wire 1 # spi_mosi $end
$var wire 1 $ spi_miso $end
$var wire 1 % spi_csn $end
$var wire 1 ' spi_clk $end
$var parameter 33 3" AW $end
$var parameter 32 4" CNT $end
$var parameter 33 5" DW $end
$var parameter 35 6" SW $end
$var parameter 32 7" TX_CNT $end
$var reg 2 8" addr [1:0] $end
$var reg 1 9" avalid $end
$var reg 2 :" cmd [1:0] $end
$var reg 1 ;" rx_addr_valid $end
$var reg 1 <" rx_addr_valid_d0 $end
$var reg 1 =" rx_addr_valid_d1 $end
$var reg 1 >" rx_addr_valid_d2 $end
$var reg 6 ?" rx_bit_cnt [5:0] $end
$var reg 23 @" rx_byte_buf [22:0] $end
$var reg 1 A" rx_data_valid $end
$var reg 1 B" rx_data_valid_d0 $end
$var reg 1 C" rx_data_valid_d1 $end
$var reg 1 D" rx_data_valid_d2 $end
$var reg 1 E" spi_miso_enable $end
$var reg 6 F" tx_bit_cnt [5:0] $end
$var reg 18 G" tx_byte_buf [17:0] $end
$var reg 18 H" wdata [17:0] $end
$var reg 1 8 wen $end
$upscope $end
$upscope $end
$scope module inst_host_spi $end
$var wire 1 * clk $end
$var wire 1 + rst $end
$var wire 1 $ spi_miso $end
$var wire 18 I" spi_rx_data [17:0] $end
$var wire 1 - spi_start $end
$var wire 23 J" spi_tx_data [22:0] $end
$var wire 1 ' spi_sck $end
$var parameter 36 K" DW $end
$var parameter 33 L" RX $end
$var parameter 36 M" SPI_BEAT $end
$var parameter 2 N" SPI_IDLE $end
$var parameter 2 O" SPI_WORK $end
$var reg 8 P" spi_cnt [7:0] $end
$var reg 1 & spi_complete $end
$var reg 1 % spi_csn $end
$var reg 1 # spi_mosi $end
$var reg 18 Q" spi_rx_reg [17:0] $end
$var reg 1 ! spi_rx_valid $end
$var reg 2 R" spi_state [1:0] $end
$var reg 23 S" spi_tx_reg [22:0] $end
$upscope $end
$scope task FPGA_SPI_RD $end
$var reg 2 T" addr [1:0] $end
$var reg 18 U" rdata [17:0] $end
$upscope $end
$scope task FPGA_SPI_WR $end
$var reg 2 V" addr [1:0] $end
$var reg 18 W" wdata [17:0] $end
$upscope $end
$upscope $end
$enddefinitions $end
$comment Show the parameter values. $end
$dumpall
b10 O"
b1 N"
b101110 M"
b10010 L"
b10111 K"
b101 7"
b10111 6"
b10010 5"
b110 4"
b100 3"
b1000 ."
b10000 -"
b1000 ,"
b11 +"
b1000 %"
b10000 $"
b1000 #"
b11 ""
b0 M
b10 L
b10 K
b11 J
b1 I
$end
#0
$dumpvars
bx W"
bx V"
bx U"
bx T"
b0 S"
b0 R"
b0 Q"
b0 P"
b0 J"
b0 I"
b0 H"
b0 G"
b10110 F"
0E"
0D"
0C"
0B"
0A"
b0 @"
b0 ?"
0>"
0="
0<"
0;"
b0 :"
09"
b0 8"
12"
b0 1"
b1000 0"
b0 /"
bx *"
b0 )"
bx ("
b1000 '"
b0 &"
b0 !"
b0 ~
b0 }
b0 |
b0 {
b0 z
b0 y
b0 x
b0 w
b0 v
b0 u
b0 t
b0 s
b0 r
b0 q
b0 p
b0 o
1n
b0 m
b0 l
b0 k
b0 j
b0 i
b0 h
b0 g
b0 f
0e
b0 d
b0 c
0b
0a
b0 `
0_
0^
b0 ]
b0 \
0[
0Z
b0 Y
b0 X
b0 W
b0 V
xU
bx T
bx S
b0 R
b1 Q
b1 P
b0 O
b0 N
b0 H
b0 G
b0 F
0E
b0 D
b0 C
b0 B
b0 A
b0 @
b0 ?
b0 >
b0 =
b0 <
b0 ;
0:
b0 9
08
07
06
b0 5
04
03
02
b0 1
00
b0 /
b0 .
0-
0,
1+
0*
0)
1(
0'
0&
1%
0$
0#
b0 "
0!
$end
#20000
1[
0(
#25000
0n
1)
#45000
1n
0)
#50000
0[
b1000 0"
b1000 '"
1(
#70000
1[
0(
#75000
0n
1)
#95000
1n
0)
#100000
0[
b1000 0"
b1000 '"
1(
#120000
1[
0(
#125000
0n
1)
#145000
1n
0)
#150000
0[
b1000 0"
b1000 '"
1(
1*
#170000
1[
0(
#175000
0n
1)
#195000
1n
0)
#200000
0[
02"
1(
0+
1,
#220000
1[
0(
#225000
0n
1)
#245000
1n
0)
#250000
0[
1(
#270000
1[
0(
#275000
0n
1)
#295000
1n
0)
#300000
0[
1(
0*
#320000
1[
0(
#325000
0n
1)
#345000
1n
0)
#350000
0[
1(
#370000
1[
0(
#375000
0n
1)
#395000
1n
0)
#400000
0[
1(
#420000
1[
0(
#425000
0n
1)
#445000
1n
0)
#450000
b1 R"
0[
1(
1*
#470000
1[
0(
#475000
0n
1)
#495000
1n
0)
#500000
0[
1(
#520000
1[
0(
#525000
0n
1)
#545000
1n
0)
#550000
0[
1(
#570000
1[
0(
#575000
0n
1)
#595000
1n
0)
#600000
0[
1(
0*
#620000
1[
0(
#625000
0n
1)
#645000
1n
0)
#650000
0[
1(
#670000
1[
0(
#675000
0n
1)
#695000
1n
0)
#700000
0[
1(
b1 W"
b0 V"
#720000
1[
0(
#725000
0n
1)
#745000
1n
0)
#750000
0[
1(
1*
#770000
1[
0(
#775000
0n
1)
#795000
1n
0)
#800000
0[
1(
#820000
1[
0(
#825000
0n
1)
#845000
1n
0)
#850000
0[
1(
#870000
1[
0(
#875000
0n
1)
#895000
1n
0)
#900000
0[
b10000000000000000000001 .
b10000000000000000000001 J"
1-
1(
0*
#920000
1[
0(
#925000
0n
1)
#945000
1n
0)
#950000
0[
1(
#970000
1[
0(
#975000
0n
1)
#995000
1n
0)
#1000000
0[
1(
#1020000
1[
0(
#1025000
0n
1)
#1045000
1n
0)
#1050000
1#
0%
b10 S"
b10 R"
0[
1(
1*
#1070000
1[
0(
#1075000
0n
1)
#1095000
1n
0)
#1100000
0[
1(
#1120000
1[
0(
#1125000
0n
1)
#1145000
1n
0)
#1150000
0[
1(
#1170000
1[
0(
#1175000
0n
1)
#1195000
1n
0)
#1200000
0[
0-
1(
0*
#1220000
1[
0(
#1225000
0n
1)
#1245000
1n
0)
#1250000
0[
1(
#1270000
1[
0(
#1275000
0n
1)
#1295000
1n
0)
#1300000
0[
1(
#1320000
1[
0(
#1325000
0n
1)
#1345000
1n
0)
#1350000
b1 @"
b1 ?"
1'
b1 P"
0[
1(
1*
#1370000
1[
0(
#1375000
0n
1)
#1395000
1n
0)
#1400000
0[
1(
#1420000
1[
0(
#1425000
0n
1)
#1445000
1n
0)
#1450000
0[
1(
#1470000
1[
0(
#1475000
0n
1)
#1495000
1n
0)
#1500000
0[
1(
0*
#1520000
1[
0(
#1525000
0n
1)
#1545000
1n
0)
#1550000
0[
1(
#1570000
1[
0(
#1575000
0n
1)
#1595000
1n
0)
#1600000
0[
1(
#1620000
1[
0(
#1625000
0n
1)
#1645000
1n
0)
#1650000
b10101 F"
0'
b100 S"
0#
b10 P"
0[
1(
1*
#1670000
1[
0(
#1675000
0n
1)
#1695000
1n
0)
#1700000
0[
1(
#1720000
1[
0(
#1725000
0n
1)
#1745000
1n
0)
#1750000
0[
1(
#1770000
1[
0(
#1775000
0n
1)
#1795000
1n
0)
#1800000
0[
1(
0*
#1820000
1[
0(
#1825000
0n
1)
#1845000
1n
0)
#1850000
0[
1(
#1870000
1[
0(
#1875000
0n
1)
#1895000
1n
0)
#1900000
0[
1(
#1920000
1[
0(
#1925000
0n
1)
#1945000
1n
0)
#1950000
b10 ?"
b10 @"
1'
b11 P"
0[
1(
1*
#1970000
1[
0(
#1975000
0n
1)
#1995000
1n
0)
#2000000
0[
1(
#2020000
1[
0(
#2025000
0n
1)
#2045000
1n
0)
#2050000
0[
1(
#2070000
1[
0(
#2075000
0n
1)
#2095000
1n
0)
#2100000
0[
1(
0*
#2120000
1[
0(
#2125000
0n
1)
#2145000
1n
0)
#2150000
0[
1(
#2170000
1[
0(
#2175000
0n
1)
#2195000
1n
0)
#2200000
0[
1(
#2220000
1[
0(
#2225000
0n
1)
#2245000
1n
0)
#2250000
b10100 F"
0'
b1000 S"
b100 P"
0[
1(
1*
#2270000
1[
0(
#2275000
0n
1)
#2295000
1n
0)
#2300000
0[
1(
#2320000
1[
0(
#2325000
0n
1)
#2345000
1n
0)
#2350000
0[
1(
#2370000
1[
0(
#2375000
0n
1)
#2395000
1n
0)
#2400000
0[
1(
0*
#2420000
1[
0(
#2425000
0n
1)
#2445000
1n
0)
#2450000
0[
1(
#2470000
1[
0(
#2475000
0n
1)
#2495000
1n
0)
#2500000
0[
1(
#2520000
1[
0(
#2525000
0n
1)
#2545000
1n
0)
#2550000
b100 @"
b11 ?"
1'
b101 P"
0[
1(
1*
#2570000
1[
0(
#2575000
0n
1)
#2595000
1n
0)
#2600000
0[
1(
#2620000
1[
0(
#2625000
0n
1)
#2645000
1n
0)
#2650000
0[
1(
#2670000
1[
0(
#2675000
0n
1)
#2695000
1n
0)
#2700000
0[
1(
0*
#2720000
1[
0(
#2725000
0n
1)
#2745000
1n
0)
#2750000
0[
1(
#2770000
1[
0(
#2775000
0n
1)
#2795000
1n
0)
#2800000
0[
1(
#2820000
1[
0(
#2825000
0n
1)
#2845000
1n
0)
#2850000
b10011 F"
0'
b10000 S"
b110 P"
0[
1(
1*
#2870000
1[
0(
#2875000
0n
1)
#2895000
1n
0)
#2900000
0[
1(
#2920000
1[
0(
#2925000
0n
1)
#2945000
1n
0)
#2950000
0[
1(
#2970000
1[
0(
#2975000
0n
1)
#2995000
1n
0)
#3000000
0[
1(
0*
#3020000
1[
0(
#3025000
0n
1)
#3045000
1n
0)
#3050000
0[
1(
#3070000
1[
0(
#3075000
0n
1)
#3095000
1n
0)
#3100000
0[
1(
#3120000
1[
0(
#3125000
0n
1)
#3145000
1n
0)
#3150000
b100 ?"
b1000 @"
1;"
1'
b111 P"
0[
1(
1*
#3170000
1[
0(
#3175000
0n
1)
#3195000
1n
0)
#3200000
1<"
0[
1(
#3220000
1[
0(
#3225000
0n
1)
#3245000
1n
0)
#3250000
1="
0[
1(
#3270000
1[
0(
#3275000
0n
1)
#3295000
1n
0)
#3300000
19"
b10 :"
1>"
0[
1(
0*
#3320000
1[
0(
#3325000
0n
1)
#3345000
1n
0)
#3350000
09"
0[
1(
#3370000
1[
0(
#3375000
0n
1)
#3395000
1n
0)
#3400000
0[
1(
#3420000
1[
0(
#3425000
0n
1)
#3445000
1n
0)
#3450000
b10010 F"
0'
b100000 S"
b1000 P"
0[
1(
1*
#3470000
1[
0(
#3475000
0n
1)
#3495000
1n
0)
#3500000
0[
1(
#3520000
1[
0(
#3525000
0n
1)
#3545000
1n
0)
#3550000
0[
1(
#3570000
1[
0(
#3575000
0n
1)
#3595000
1n
0)
#3600000
0[
1(
0*
#3620000
1[
0(
#3625000
0n
1)
#3645000
1n
0)
#3650000
0[
1(
#3670000
1[
0(
#3675000
0n
1)
#3695000
1n
0)
#3700000
0[
1(
#3720000
1[
0(
#3725000
0n
1)
#3745000
1n
0)
#3750000
0;"
b10000 @"
b101 ?"
1'
b1001 P"
0[
1(
1*
#3770000
1[
0(
#3775000
0n
1)
#3795000
1n
0)
#3800000
0<"
0[
1(
#3820000
1[
0(
#3825000
0n
1)
#3845000
1n
0)
#3850000
0="
0[
1(
#3870000
1[
0(
#3875000
0n
1)
#3895000
1n
0)
#3900000
0>"
0[
1(
0*
#3920000
1[
0(
#3925000
0n
1)
#3945000
1n
0)
#3950000
0[
1(
#3970000
1[
0(
#3975000
0n
1)
#3995000
1n
0)
#4000000
0[
1(
#4020000
1[
0(
#4025000
0n
1)
#4045000
1n
0)
#4050000
1E"
b10001 F"
0'
b1000000 S"
b1010 P"
0[
1(
1*
#4070000
1[
0(
#4075000
0n
1)
#4095000
1n
0)
#4100000
0[
1(
#4120000
1[
0(
#4125000
0n
1)
#4145000
1n
0)
#4150000
0[
1(
#4170000
1[
0(
#4175000
0n
1)
#4195000
1n
0)
#4200000
0[
1(
0*
#4220000
1[
0(
#4225000
0n
1)
#4245000
1n
0)
#4250000
0[
1(
#4270000
1[
0(
#4275000
0n
1)
#4295000
1n
0)
#4300000
0[
1(
#4320000
1[
0(
#4325000
0n
1)
#4345000
1n
0)
#4350000
b110 ?"
b100000 @"
1'
b1011 P"
0[
1(
1*
#4370000
1[
0(
#4375000
0n
1)
#4395000
1n
0)
#4400000
0[
1(
#4420000
1[
0(
#4425000
0n
1)
#4445000
1n
0)
#4450000
0[
1(
#4470000
1[
0(
#4475000
0n
1)
#4495000
1n
0)
#4500000
0[
1(
0*
#4520000
1[
0(
#4525000
0n
1)
#4545000
1n
0)
#4550000
0[
1(
#4570000
1[
0(
#4575000
0n
1)
#4595000
1n
0)
#4600000
0[
1(
#4620000
1[
0(
#4625000
0n
1)
#4645000
1n
0)
#4650000
b10000 F"
0'
b10000000 S"
b1100 P"
0[
1(
1*
#4670000
1[
0(
#4675000
0n
1)
#4695000
1n
0)
#4700000
0[
1(
#4720000
1[
0(
#4725000
0n
1)
#4745000
1n
0)
#4750000
0[
1(
#4770000
1[
0(
#4775000
0n
1)
#4795000
1n
0)
#4800000
0[
1(
0*
#4820000
1[
0(
#4825000
0n
1)
#4845000
1n
0)
#4850000
0[
1(
#4870000
1[
0(
#4875000
0n
1)
#4895000
1n
0)
#4900000
0[
1(
#4920000
1[
0(
#4925000
0n
1)
#4945000
1n
0)
#4950000
b1000000 @"
b111 ?"
1'
b1101 P"
0[
1(
1*
#4970000
1[
0(
#4975000
0n
1)
#4995000
1n
0)
#5000000
0[
1(
#5020000
1[
0(
#5025000
0n
1)
#5045000
1n
0)
#5050000
0[
1(
#5070000
1[
0(
#5075000
0n
1)
#5095000
1n
0)
#5100000
0[
1(
0*
#5120000
1[
0(
#5125000
0n
1)
#5145000
1n
0)
#5150000
0[
1(
#5170000
1[
0(
#5175000
0n
1)
#5195000
1n
0)
#5200000
0[
1(
#5220000
1[
0(
#5225000
0n
1)
#5245000
1n
0)
#5250000
b1111 F"
0'
b100000000 S"
b1110 P"
0[
1(
1*
#5270000
1[
0(
#5275000
0n
1)
#5295000
1n
0)
#5300000
0[
1(
#5320000
1[
0(
#5325000
0n
1)
#5345000
1n
0)
#5350000
0[
1(
#5370000
1[
0(
#5375000
0n
1)
#5395000
1n
0)
#5400000
0[
1(
0*
#5420000
1[
0(
#5425000
0n
1)
#5445000
1n
0)
#5450000
0[
1(
#5470000
1[
0(
#5475000
0n
1)
#5495000
1n
0)
#5500000
0[
1(
#5520000
1[
0(
#5525000
0n
1)
#5545000
1n
0)
#5550000
b1000 ?"
b10000000 @"
1'
b1111 P"
0[
1(
1*
#5570000
1[
0(
#5575000
0n
1)
#5595000
1n
0)
#5600000
0[
1(
#5620000
1[
0(
#5625000
0n
1)
#5645000
1n
0)
#5650000
0[
1(
#5670000
1[
0(
#5675000
0n
1)
#5695000
1n
0)
#5700000
0[
1(
0*
#5720000
1[
0(
#5725000
0n
1)
#5745000
1n
0)
#5750000
0[
1(
#5770000
1[
0(
#5775000
0n
1)
#5795000
1n
0)
#5800000
0[
1(
#5820000
1[
0(
#5825000
0n
1)
#5845000
1n
0)
#5850000
b1110 F"
0'
b1000000000 S"
b10000 P"
0[
1(
1*
#5870000
1[
0(
#5875000
0n
1)
#5895000
1n
0)
#5900000
0[
1(
#5920000
1[
0(
#5925000
0n
1)
#5945000
1n
0)
#5950000
0[
1(
#5970000
1[
0(
#5975000
0n
1)
#5995000
1n
0)
#6000000
0[
1(
0*
#6020000
1[
0(
#6025000
0n
1)
#6045000
1n
0)
#6050000
0[
1(
#6070000
1[
0(
#6075000
0n
1)
#6095000
1n
0)
#6100000
0[
1(
#6120000
1[
0(
#6125000
0n
1)
#6145000
1n
0)
#6150000
b100000000 @"
b1001 ?"
1'
b10001 P"
0[
1(
1*
#6170000
1[
0(
#6175000
0n
1)
#6195000
1n
0)
#6200000
0[
1(
#6220000
1[
0(
#6225000
0n
1)
#6245000
1n
0)
#6250000
0[
1(
#6270000
1[
0(
#6275000
0n
1)
#6295000
1n
0)
#6300000
0[
1(
0*
#6320000
1[
0(
#6325000
0n
1)
#6345000
1n
0)
#6350000
0[
1(
#6370000
1[
0(
#6375000
0n
1)
#6395000
1n
0)
#6400000
0[
1(
#6420000
1[
0(
#6425000
0n
1)
#6445000
1n
0)
#6450000
b1101 F"
0'
b10000000000 S"
b10010 P"
0[
1(
1*
#6470000
1[
0(
#6475000
0n
1)
#6495000
1n
0)
#6500000
0[
1(
#6520000
1[
0(
#6525000
0n
1)
#6545000
1n
0)
#6550000
0[
1(
#6570000
1[
0(
#6575000
0n
1)
#6595000
1n
0)
#6600000
0[
1(
0*
#6620000
1[
0(
#6625000
0n
1)
#6645000
1n
0)
#6650000
0[
1(
#6670000
1[
0(
#6675000
0n
1)
#6695000
1n
0)
#6700000
0[
1(
#6720000
1[
0(
#6725000
0n
1)
#6745000
1n
0)
#6750000
b1010 ?"
b1000000000 @"
1'
b10011 P"
0[
1(
1*
#6770000
1[
0(
#6775000
0n
1)
#6795000
1n
0)
#6800000
0[
1(
#6820000
1[
0(
#6825000
0n
1)
#6845000
1n
0)
#6850000
0[
1(
#6870000
1[
0(
#6875000
0n
1)
#6895000
1n
0)
#6900000
0[
1(
0*
#6920000
1[
0(
#6925000
0n
1)
#6945000
1n
0)
#6950000
0[
1(
#6970000
1[
0(
#6975000
0n
1)
#6995000
1n
0)
#7000000
0[
1(
#7020000
1[
0(
#7025000
0n
1)
#7045000
1n
0)
#7050000
b1100 F"
0'
b100000000000 S"
b10100 P"
0[
1(
1*
#7070000
1[
0(
#7075000
0n
1)
#7095000
1n
0)
#7100000
0[
1(
#7120000
1[
0(
#7125000
0n
1)
#7145000
1n
0)
#7150000
0[
1(
#7170000
1[
0(
#7175000
0n
1)
#7195000
1n
0)
#7200000
0[
1(
0*
#7220000
1[
0(
#7225000
0n
1)
#7245000
1n
0)
#7250000
0[
1(
#7270000
1[
0(
#7275000
0n
1)
#7295000
1n
0)
#7300000
0[
1(
#7320000
1[
0(
#7325000
0n
1)
#7345000
1n
0)
#7350000
b10000000000 @"
b1011 ?"
1'
b10101 P"
0[
1(
1*
#7370000
1[
0(
#7375000
0n
1)
#7395000
1n
0)
#7400000
0[
1(
#7420000
1[
0(
#7425000
0n
1)
#7445000
1n
0)
#7450000
0[
1(
#7470000
1[
0(
#7475000
0n
1)
#7495000
1n
0)
#7500000
0[
1(
0*
#7520000
1[
0(
#7525000
0n
1)
#7545000
1n
0)
#7550000
0[
1(
#7570000
1[
0(
#7575000
0n
1)
#7595000
1n
0)
#7600000
0[
1(
#7620000
1[
0(
#7625000
0n
1)
#7645000
1n
0)
#7650000
b1011 F"
0'
b1000000000000 S"
b10110 P"
0[
1(
1*
#7670000
1[
0(
#7675000
0n
1)
#7695000
1n
0)
#7700000
0[
1(
#7720000
1[
0(
#7725000
0n
1)
#7745000
1n
0)
#7750000
0[
1(
#7770000
1[
0(
#7775000
0n
1)
#7795000
1n
0)
#7800000
0[
1(
0*
#7820000
1[
0(
#7825000
0n
1)
#7845000
1n
0)
#7850000
0[
1(
#7870000
1[
0(
#7875000
0n
1)
#7895000
1n
0)
#7900000
0[
1(
#7920000
1[
0(
#7925000
0n
1)
#7945000
1n
0)
#7950000
b1100 ?"
b100000000000 @"
1'
b10111 P"
0[
1(
1*
#7970000
1[
0(
#7975000
0n
1)
#7995000
1n
0)
#8000000
0[
1(
#8020000
1[
0(
#8025000
0n
1)
#8045000
1n
0)
#8050000
0[
1(
#8070000
1[
0(
#8075000
0n
1)
#8095000
1n
0)
#8100000
0[
1(
0*
#8120000
1[
0(
#8125000
0n
1)
#8145000
1n
0)
#8150000
0[
1(
#8170000
1[
0(
#8175000
0n
1)
#8195000
1n
0)
#8200000
0[
1(
#8220000
1[
0(
#8225000
0n
1)
#8245000
1n
0)
#8250000
b1010 F"
0'
b10000000000000 S"
b11000 P"
0[
1(
1*
#8270000
1[
0(
#8275000
0n
1)
#8295000
1n
0)
#8300000
0[
1(
#8320000
1[
0(
#8325000
0n
1)
#8345000
1n
0)
#8350000
0[
1(
#8370000
1[
0(
#8375000
0n
1)
#8395000
1n
0)
#8400000
0[
1(
0*
#8420000
1[
0(
#8425000
0n
1)
#8445000
1n
0)
#8450000
0[
1(
#8470000
1[
0(
#8475000
0n
1)
#8495000
1n
0)
#8500000
0[
1(
#8520000
1[
0(
#8525000
0n
1)
#8545000
1n
0)
#8550000
b1000000000000 @"
b1101 ?"
1'
b11001 P"
0[
1(
1*
#8570000
1[
0(
#8575000
0n
1)
#8595000
1n
0)
#8600000
0[
1(
#8620000
1[
0(
#8625000
0n
1)
#8645000
1n
0)
#8650000
0[
1(
#8670000
1[
0(
#8675000
0n
1)
#8695000
1n
0)
#8700000
0[
1(
0*
#8720000
1[
0(
#8725000
0n
1)
#8745000
1n
0)
#8750000
0[
1(
#8770000
1[
0(
#8775000
0n
1)
#8795000
1n
0)
#8800000
0[
1(
#8820000
1[
0(
#8825000
0n
1)
#8845000
1n
0)
#8850000
b1001 F"
0'
b100000000000000 S"
b11010 P"
0[
1(
1*
#8870000
1[
0(
#8875000
0n
1)
#8895000
1n
0)
#8900000
0[
1(
#8920000
1[
0(
#8925000
0n
1)
#8945000
1n
0)
#8950000
0[
1(
#8970000
1[
0(
#8975000
0n
1)
#8995000
1n
0)
#9000000
0[
1(
0*
#9020000
1[
0(
#9025000
0n
1)
#9045000
1n
0)
#9050000
0[
1(
#9070000
1[
0(
#9075000
0n
1)
#9095000
1n
0)
#9100000
0[
1(
#9120000
1[
0(
#9125000
0n
1)
#9145000
1n
0)
#9150000
b1110 ?"
b10000000000000 @"
1'
b11011 P"
0[
1(
1*
#9170000
1[
0(
#9175000
0n
1)
#9195000
1n
0)
#9200000
0[
1(
#9220000
1[
0(
#9225000
0n
1)
#9245000
1n
0)
#9250000
0[
1(
#9270000
1[
0(
#9275000
0n
1)
#9295000
1n
0)
#9300000
0[
1(
0*
#9320000
1[
0(
#9325000
0n
1)
#9345000
1n
0)
#9350000
0[
1(
#9370000
1[
0(
#9375000
0n
1)
#9395000
1n
0)
#9400000
0[
1(
#9420000
1[
0(
#9425000
0n
1)
#9445000
1n
0)
#9450000
b1000 F"
0'
b1000000000000000 S"
b11100 P"
0[
1(
1*
#9470000
1[
0(
#9475000
0n
1)
#9495000
1n
0)
#9500000
0[
1(
#9520000
1[
0(
#9525000
0n
1)
#9545000
1n
0)
#9550000
0[
1(
#9570000
1[
0(
#9575000
0n
1)
#9595000
1n
0)
#9600000
0[
1(
0*
#9620000
1[
0(
#9625000
0n
1)
#9645000
1n
0)
#9650000
0[
1(
#9670000
1[
0(
#9675000
0n
1)
#9695000
1n
0)
#9700000
0[
1(
#9720000
1[
0(
#9725000
0n
1)
#9745000
1n
0)
#9750000
b100000000000000 @"
b1111 ?"
1'
b11101 P"
0[
1(
1*
#9770000
1[
0(
#9775000
0n
1)
#9795000
1n
0)
#9800000
0[
1(
#9820000
1[
0(
#9825000
0n
1)
#9845000
1n
0)
#9850000
0[
1(
#9870000
1[
0(
#9875000
0n
1)
#9895000
1n
0)
#9900000
0[
1(
0*
#9920000
1[
0(
#9925000
0n
1)
#9945000
1n
0)
#9950000
0[
1(
#9970000
1[
0(
#9975000
0n
1)
#9995000
1n
0)
#10000000
0[
1(
#10020000
1[
0(
#10025000
0n
1)
#10045000
1n
0)
#10050000
b111 F"
0'
b10000000000000000 S"
b11110 P"
0[
1(
1*
#10070000
1[
0(
#10075000
0n
1)
#10095000
1n
0)
#10100000
0[
1(
#10120000
1[
0(
#10125000
0n
1)
#10145000
1n
0)
#10150000
0[
1(
#10170000
1[
0(
#10175000
0n
1)
#10195000
1n
0)
#10200000
0[
1(
0*
#10220000
1[
0(
#10225000
0n
1)
#10245000
1n
0)
#10250000
0[
1(
#10270000
1[
0(
#10275000
0n
1)
#10295000
1n
0)
#10300000
0[
1(
#10320000
1[
0(
#10325000
0n
1)
#10345000
1n
0)
#10350000
b10000 ?"
b1000000000000000 @"
1'
b11111 P"
0[
1(
1*
#10370000
1[
0(
#10375000
0n
1)
#10395000
1n
0)
#10400000
0[
1(
#10420000
1[
0(
#10425000
0n
1)
#10445000
1n
0)
#10450000
0[
1(
#10470000
1[
0(
#10475000
0n
1)
